{
  "name": "Adil Ahsan",
  "company": "Think Transportation",
  "email": "adil@thinktransportation.net",
  "position": "CMO",
  "services": ["Transportation Planning", "Traffic Engineering", "Traffic Impact Studies",
                        "Transportation Data Analytics", "Autonomous Vehicles", "Smart Cities", "Railway Engineering",
                        "Airports", "Sea Ports", "Highway Engineering and Design", "Logistics",
                        "Public Transport Planning and Design", "Traffic Survey", "Data Collection",
                        "GIS Mapping and Remote Sensing"],
  "serivice_detail": []

}